[
    {
        "name": "login",
        "path": "/",
        "component": "views/login/index.vue"
    },
    {
        "name": "home",
        "path": "/home",
        "component": "views/home/index.vue"
    },
    {
        "name": "detail",
        "path": "/detail/:id",
        "component": "views/product-detail/index.vue"
    },
    {
        "name": "cart",
        "path": "/cart",
        "component": "views/cart/index.vue"
    },
    {
        "name": "checkout",
        "path": "/checkout",
        "component": "views/checkout/index.vue"
    },
    {
        "name": "payment",
        "path": "/payment",
        "component": "views/payment/index.vue"
    }
]